<svg xmlns="http://www.w3.org/2000/svg" width="92.5" height="92.5" viewBox="0 0 92.5 92.5">
  <path id="Icon_awesome-spinner" data-name="Icon awesome-spinner" d="M54.922,8.672A8.672,8.672,0,1,1,46.25,0,8.672,8.672,0,0,1,54.922,8.672ZM46.25,75.156a8.672,8.672,0,1,0,8.672,8.672A8.672,8.672,0,0,0,46.25,75.156ZM83.828,37.578A8.672,8.672,0,1,0,92.5,46.25,8.672,8.672,0,0,0,83.828,37.578ZM17.344,46.25a8.672,8.672,0,1,0-8.672,8.672A8.672,8.672,0,0,0,17.344,46.25Zm2.335,17.9a8.672,8.672,0,1,0,8.672,8.672A8.672,8.672,0,0,0,19.678,64.15Zm53.143,0a8.672,8.672,0,1,0,8.672,8.672A8.672,8.672,0,0,0,72.822,64.15ZM19.678,11.006a8.672,8.672,0,1,0,8.672,8.672A8.672,8.672,0,0,0,19.678,11.006Z" fill="#1b91ee"/>
</svg>
