<svg xmlns="http://www.w3.org/2000/svg" width="16.414" height="15.263" viewBox="0 0 16.414 15.263">
  <g id="Icon_feather-check-square" data-name="Icon feather-check-square" transform="translate(-3.5 -3.5)">
    <path id="Path_367" data-name="Path 367" d="M13.5,11.158l2.211,2.211L23.079,6" transform="translate(-4.579 -0.763)" fill="none" stroke="#fff" stroke-linecap="round" stroke-linejoin="round" stroke-width="2"/>
    <path id="Path_368" data-name="Path 368" d="M17.763,11.132v5.158a1.474,1.474,0,0,1-1.474,1.474H5.974A1.474,1.474,0,0,1,4.5,16.289V5.974A1.474,1.474,0,0,1,5.974,4.5h8.105" fill="none" stroke="#fff" stroke-linecap="round" stroke-linejoin="round" stroke-width="2"/>
  </g>
</svg>
