<svg xmlns="http://www.w3.org/2000/svg" width="12.308" height="16" viewBox="0 0 12.308 16">
  <path id="Icon_ionic-md-document" data-name="Icon ionic-md-document" d="M14.135,3.375H8.288A1.538,1.538,0,0,0,6.75,4.913V17.837a1.538,1.538,0,0,0,1.538,1.538h9.231a1.538,1.538,0,0,0,1.538-1.538V8.3Zm-.615,5.538V4.606l4.308,4.308Z" transform="translate(-6.75 -3.375)" fill="#fff"/>
</svg>
